digraph  {
0 [class="start active", fillcolor=green, fontsize=12, label=START, style=filled];
"-1" [class=end, fillcolor=red, fontsize=12, label=END, style=filled];
1 [class=active, fontsize=12, label=action_session_start];
2 [class=active, fontsize=12, label=goodbye_form];
4 [class=active, fontsize=12, label=action_submit_goodbye_form];
5 [class="intent dashed active", label="  ?  ", shape=rect];
6 [class="intent active", fillcolor=lightblue, label=goodbye, shape=rect, style=filled];
7 [class="intent active", fillcolor=lightblue, label=yes, shape=rect, style=filled];
0 -> "-1"  [class="", key=NONE, label=""];
0 -> 1  [class=active, key=NONE, label=""];
1 -> 6  [class=active, key=0];
2 -> 4  [class=active, key=NONE, label=""];
2 -> 7  [class=active, key=0];
4 -> 5  [class=active, key=NONE, label=""];
6 -> 2  [class=active, key=0];
7 -> 2  [class=active, key=0];
}
